{
    "success": {
        "status": 200,
        "error" : []
    },
    "unauthorized": {
        "status": 401,
        "error": [
            {
                "message": "Incorrect Username/Password"
            }
        ]
    },
    "no-access-token": {
        "status": 401,
        "error": [
            {
                "message": "Authorization Code Required"
            }
        ]
    },
    "invalid-access-token": {
        "status": 401,
        "error": [
            {
                "message": "Invalid Access Token"
            }
        ]
    },
    "username-exists": {
        "status": 401,
        "error": [
            {
                "message": "Username/Email already in use!"
            }
        ]
    },
    "name-exists": {
        "status": 401,
        "error": [
            {
                "message": "Name already in use!"
            }
        ]
    },
    "not-found": {
        "status": 404,
        "error": [
            {
                "message": "Not Found"
            }
        ]
    },
    "forbidden": {
        "status": 403,
        "error": [
            {
                "message": "Request Forbidden"
            }
        ]
    },
    "invalid-request": {
        "status": 404,
        "error": [
            {
                "message": "Invalid Request"
            }
        ]
    },
    "invalid-req-method" : {
        "status": 404,
        "error": [
            {
                "message": "Invalid Request Method"
            }
        ]
    },
    "db-error" : {
        "status": 404,
        "error": [
            {
                "message": "Something Wrong with DB"
            }
        ]
    }
}